{
  "body": {
    "collaborative": true,
    "description": "string",
    "external_urls": {
      "spotify": "string"
    },
    "followers": {
      "href": "string",
      "total": 0
    },
    "href": "string",
    "id": "string",
    "images": [
      {
        "url": "https://i.scdn.co/image/ab67616d00001e02ff9ca10b55ce82ae553c8228\n",
        "height": 300,
        "width": 300
      }
    ],
    "name": "string",
    "owner": {
      "external_urls": {
        "spotify": "string"
      },
      "followers": {
        "href": "string",
        "total": 0
      },
      "href": "string",
      "id": "string",
      "type": "user",
      "uri": "string",
      "display_name": "string"
    },
    "public": true,
    "snapshot_id": "string",
    "tracks": {
      "href": "https://api.spotify.com/v1/me/shows?offset=0&limit=20\n",
      "items": [
        {}
      ],
      "limit": 20,
      "next": "https://api.spotify.com/v1/me/shows?offset=1&limit=1",
      "offset": 0,
      "previous": "https://api.spotify.com/v1/me/shows?offset=1&limit=1",
      "total": 4
    },
    "type": "string",
    "uri": "string"
  },
  "headers": {
    "content-type": "application/json; charset=utf-8",
    "cache-control": "public, max-age=74768",
    "x-robots-tag": "noindex, nofollow",
    "access-control-allow-origin": "*",
    "access-control-allow-headers": "Accept, App-Platform, Authorization, Content-Type, Origin, Retry-After, Spotify-App-Version, X-Cloud-Trace-Context, client-token, content-access-token",
    "access-control-allow-methods": "GET, POST, OPTIONS, PUT, DELETE, PATCH",
    "access-control-allow-credentials": "true",
    "access-control-max-age": "604800",
    "content-encoding": "gzip",
    "strict-transport-security": "max-age=31536000",
    "x-content-type-options": "nosniff",
    "date": "Tue, 25 Jan 2022 06:49:57 GMT",
    "server": "envoy",
    "via": "HTTP/2 edgeproxy, 1.1 google",
    "alt-svc": "clear",
    "connection": "close",
    "transfer-encoding": "chunked"
  },
  "statusCode": 200
}